<?xml version="1.0" encoding="UTF-8"?>
<!DOCTYPE svg PUBLIC "-//W3C//DTD SVG 1.1//EN" "http://www.w3.org/Graphics/SVG/1.1/DTD/svg11.dtd">
<!-- Creator: CorelDRAW X5 -->
<svg xmlns="http://www.w3.org/2000/svg" xml:space="preserve" width="210mm" height="57.953mm" style="shape-rendering:geometricPrecision; text-rendering:geometricPrecision; image-rendering:optimizeQuality; fill-rule:evenodd; clip-rule:evenodd"
viewBox="0 0 21000 5795"
 xmlns:xlink="http://www.w3.org/1999/xlink">
 <defs>
  <style type="text/css">
   <![CDATA[
    .fil0 {fill:#9A141B;fill-rule:nonzero}
    .fil2 {fill:#E2001A;fill-rule:nonzero}
    .fil1 {fill:white;fill-rule:nonzero}
   ]]>
  </style>
 </defs>
 <g id="Layer_x0020_1">
  <metadata id="CorelCorpID_0Corel-Layer"/>
  <polygon class="fil0" points="0,5795 5795,5795 5795,0 0,0 "/>
  <polygon class="fil1" points="3865,1093 784,1093 2150,2898 5231,2898 "/>
  <polygon class="fil2" points="5231,2898 2150,2898 784,4703 3865,4703 "/>
  <path class="fil0" d="M20494 2848c170,-94 448,-354 448,-779 0,-663 -452,-1075 -1178,-1075l-1527 0 0 3798 1594 0c721,0 1169,-421 1169,-1102 -4,-506 -305,-739 -506,-842m-1496 -1164c31,0 703,0 703,0 296,0 470,157 470,417 0,260 -175,417 -470,417 0,0 -672,0 -703,0l0 -833zm752 2423c0,0 -721,0 -752,0l0 -896c31,0 752,0 752,0 349,0 475,228 475,443 0,224 -121,452 -475,452zm-4501 -681c-27,-49 -1339,-2432 -1339,-2432l-748 0 0 3798 766 0c0,0 0,-2154 0,-2271 58,99 1321,2298 1321,2298 0,0 1263,-2199 1317,-2298 0,112 0,2271 0,2271l766 0 0 -3798 -748 0c0,-4 -1308,2383 -1335,2432zm-3798 -2427l0 3798 766 0 0 -3798 -766 0zm-1272 2884c-224,179 -493,273 -779,273 -694,0 -1232,-551 -1232,-1258 0,-703 537,-1258 1232,-1258 287,0 555,94 779,273l13 9 533 -533 -13 -13c-363,-314 -833,-488 -1312,-488 -1120,0 -2033,900 -2033,2011 0,1111 914,2011 2033,2011 479,0 949,-175 1312,-488l13 -13 -533 -533 -13 9z"/>
 </g>
</svg>
